Analisi Pinguini
…
# In order to fit the model we need to  create a workflow so
# We will predict sex based on all the other predictor 
# bill_length_mm bill_depth_mm flipper_length_mm body_mass_g
penguin_wf <- workflow() %>%
  add_formula(sex ~ .)

Fit the model

Creting the resampling dataset

folds <- vfold_cv(data = penguin_train, v = 10, repeats = 10, strata = sex)
folds

#  10-fold cross-validation repeated 10 times using stratification 
# A tibble: 100 × 3
   splits           id       id2   
   <list>           <chr>    <chr> 
 1 <split [223/26]> Repeat01 Fold01
 2 <split [223/26]> Repeat01 Fold02
 3 <split [223/26]> Repeat01 Fold03
 4 <split [224/25]> Repeat01 Fold04
 5 <split [224/25]> Repeat01 Fold05
 6 <split [224/25]> Repeat01 Fold06
 7 <split [225/24]> Repeat01 Fold07
 8 <split [225/24]> Repeat01 Fold08
 9 <split [225/24]> Repeat01 Fold09
10 <split [225/24]> Repeat01 Fold10
# … with 90 more rows
…
